{
    "name": "Core",
    "rootNamespace": "Ce.Core",
    "references": [
        "GUID:1491147abca9d7d4bb7105af628b223e"
    ],
    "includePlatforms": [],
    "excludePlatforms": [],
    "allowUnsafeCode": false,
    "overrideReferences": false,
    "precompiledReferences": [],
    "autoReferenced": true,
    "defineConstraints": [],
    "versionDefines": [],
    "noEngineReferences": false
}